<?xml version="1.0" encoding="UTF-8"?>
<svg id="Layer_2" data-name="Layer 2" xmlns="http://www.w3.org/2000/svg" viewBox="0 0 1920 1080">
  <g id="Layer_1-2" data-name="Layer 1">
    <g>
      <rect y="0" width="1920" height="1080" fill="none"/>
      <polygon points="1695.66 181.75 1706.82 96.63 1684.87 67.28 1435.76 9.38 1305.55 23.33 1276.31 9.38 960 37.29 643.69 9.38 614.45 23.33 484.24 9.38 235.13 67.28 213.18 96.63 224.34 181.75 215.84 286.2 240 425.27 220.07 598.01 229.13 675.96 217.61 747.27 249.63 833.52 245.14 903.51 294.17 888.19 327.45 895.64 529.42 910.26 614.91 927.45 677.35 914.2 715.46 925.42 755.53 914.2 832.87 943.47 960 887.67 1087.13 943.47 1164.47 914.2 1204.54 925.42 1242.65 914.2 1305.09 927.45 1390.58 910.26 1592.55 895.64 1625.83 888.19 1674.86 903.51 1670.37 833.52 1702.39 747.27 1690.87 675.96 1699.93 598.01 1680 425.27 1704.16 286.2 1695.66 181.75" fill="#ef2694" opacity=".49"/>
      <polygon points="1690.78 124.98 1712.74 55.5 1690.71 19.35 1423.8 38.61 960 0 496.2 38.61 229.29 19.35 207.26 55.5 229.22 124.98 220.07 404.01 234.44 658.68 220.07 895.64 314.16 878.37 556.21 912.69 759.29 874.9 877.87 903.51 960 875.71 1042.13 903.51 1160.71 874.9 1363.79 912.69 1605.84 878.37 1699.93 895.64 1685.56 658.68 1699.93 404.01 1690.78 124.98" fill="#ef2694"/>
    </g>
  </g>
</svg>